Afghanistan,8,12,11,15
Albania,31,33,36,39
Algeria,36,36,36,34
Angola,23,19,15,18
Argentina,34,34,32,36
Armenia,36,37,35,33
Australia,81,80,79,79
Azerbaijan,28,29,29,30
Bangladesh,27,25,25,26
Belarus,29,31,32,40
Belgium,75,76,77,77
Benin,36,39,37,36
Bolivia,34,35,34,33
Bosnia and Herzegovina,42,39,38,39
Botswana,64,63,63,60
Brazil,42,43,38,40
Bulgaria,41,43,41,41
Burkina Faso,38,38,38,42
Burundi,21,20,21,20
Cabo Verde,58,57,55,59
Cambodia,20,21,21,21
Cameroon,25,27,27,26
Canada,81,81,83,82
Chad,19,22,22,20
Chile,71,73,70,66
China,40,36,37,40
Colombia,36,37,37,37
Croatia,48,48,51,49
Cyprus,63,63,61,55
Czech Republic,48,51,56,55
Denmark,91,92,91,90
Dominican Republic,29,32,33,31
Ecuador,35,33,32,31
El Salvador,38,39,39,36
Estonia,68,69,70,70
Ethiopia,33,33,33,34
Finland,89,89,90,89
France,71,69,70,69
Gabon,34,37,34,35
Georgia,49,52,52,57
Germany,78,79,81,81
Ghana,46,48,47,43
Greece,40,43,46,44
Guatemala,29,32,28,28
Guinea,24,25,25,27
Guyana,27,30,29,34
Honduras,26,29,31,30
Hungary,54,54,51,48
India,36,38,38,40
Indonesia,32,34,36,37
Iraq,16,16,16,17
Ireland,72,74,75,73
Israel,61,60,61,64
Italy,43,43,44,47
Jamaica,38,38,41,39
Japan,74,76,75,72
Jordan,45,49,53,48
Kazakhstan,26,29,28,29
Kenya,27,25,25,26
Kuwait,43,44,49,41
Latvia,53,55,56,57
Lesotho,49,49,44,39
Liberia,38,37,37,37
Lithuania,57,58,59,59
Luxembourg,80,82,85,81
Madagascar,28,28,28,26
Malawi,37,33,31,31
Malaysia,50,52,50,49
Mali,28,32,35,32
Malta,56,55,60,55
Mauritania,30,30,31,27
Mauritius,52,54,53,54
Mexico,34,35,31,30
Moldova,35,35,33,30
Mongolia,38,39,39,38
Montenegro,44,42,44,45
Morocco,37,39,36,37
Mozambique,30,31,31,27
Namibia,48,49,53,52
Nepal,31,29,27,29
Netherlands,83,83,84,83
New Zealand,91,91,91,90
Nicaragua,28,28,27,26
Nigeria,25,27,26,28
Norway,86,86,88,85
Oman,47,45,45,45
Pakistan,28,29,30,32
Papua New Guinea,25,25,25,28
Paraguay,24,24,27,30
Peru,38,38,36,35
Philippines,36,38,35,35
Poland,60,61,63,62
Portugal,62,63,64,62
Romania,43,43,46,48
Rwanda,53,49,54,54
Saudi Arabia,46,49,52,46
Senegal,41,43,44,45
Serbia,42,41,40,42
Sierra Leone,30,31,29,30
Singapore,86,84,85,84
Slovenia,57,58,60,61
Somalia,8,8,8,10
South Africa,42,44,44,45
Spain,59,60,58,58
Sri Lanka,37,38,37,36
Sweden,89,87,89,88
Switzerland,85,86,86,86
Tanzania,33,31,30,32
Thailand,35,38,38,35
Timor-Leste,30,28,28,35
Togo,29,29,32,32
Trinidad and Tobago,38,38,39,35
Tunisia,41,40,38,41
Turkey,50,45,42,41
Uganda,26,26,25,25
Ukraine,25,26,27,29
United Kingdom,76,78,81,81
Uruguay,73,73,74,71
Vietnam,31,31,31,33
Zambia,38,38,38,38
Zimbabwe,21,21,21,22
